[{"page":1,"pages":2,"per_page":60,"total":66,"sourceid":"2","lastupdated":"2026-04-08"},[{"indicator":{"id":"AG.LND.FRST.ZS","value":"Forest area (% of land area)"},"country":{"id":"1W","value":"World"},"countryiso3code":"WLD","date":"2025","value":null,"unit":"","obs_status":"","decimal":1},{"indicator":{"id":"AG.LND.FRST.ZS","value":"Forest area (% of land area)"},"country":{"id":"1W","value":"World"},"countryiso3code":"WLD","date":"2024","value":null,"unit":"","obs_status":"","decimal":1},{"indicator":{"id":"AG.LND.FRST.ZS","value":"Forest area (% of land area)"},"country":{"id":"1W","value":"World"},"countryiso3code":"WLD","date":"2023","value":null,"unit":"","obs_status":"","decimal":1},{"indicator":{"id":"AG.LND.FRST.ZS","value":"Forest area (% of land area)"},"country":{"id":"1W","value":"World"},"countryiso3code":"WLD","date":"2022","value":31.1430410787403,"unit":"","obs_status":"","decimal":1},{"indicator":{"id":"AG.LND.FRST.ZS","value":"Forest area (% of land area)"},"country":{"id":"1W","value":"World"},"countryiso3code":"WLD","date":"2021","value":31.1756771274206,"unit":"","obs_status":"","decimal":1},{"indicator":{"id":"AG.LND.FRST.ZS","value":"Forest area (% of land area)"},"country":{"id":"1W","value":"World"},"countryiso3code":"WLD","date":"2020","value":31.1755410752473,"unit":"","obs_status":"","decimal":1},{"indicator":{"id":"AG.LND.FRST.ZS","value":"Forest area (% of land area)"},"country":{"id":"1W","value":"World"},"countryiso3code":"WLD","date":"2019","value":31.2123964792576,"unit":"","obs_status":"","decimal":1},{"indicator":{"id":"AG.LND.FRST.ZS","value":"Forest area (% of land area)"},"country":{"id":"1W","value":"World"},"countryiso3code":"WLD","date":"2018","value":31.2515001256163,"unit":"","obs_status":"","decimal":1},{"indicator":{"id":"AG.LND.FRST.ZS","value":"Forest area (% of land area)"},"country":{"id":"1W","value":"World"},"countryiso3code":"WLD","date":"2017","value":31.2888985608941,"unit":"","obs_status":"","decimal":1},{"indicator":{"id":"AG.LND.FRST.ZS","value":"Forest area (% of land area)"},"country":{"id":"1W","value":"World"},"countryiso3code":"WLD","date":"2016","value":31.3398157847626,"unit":"","obs_status":"","decimal":1},{"indicator":{"id":"AG.LND.FRST.ZS","value":"Forest area (% of land area)"},"country":{"id":"1W","value":"World"},"countryiso3code":"WLD","date":"2015","value":31.3672852185744,"unit":"","obs_status":"","decimal":1},{"indicator":{"id":"AG.LND.FRST.ZS","value":"Forest area (% of land area)"},"country":{"id":"1W","value":"World"},"countryiso3code":"WLD","date":"2014","value":31.4027044198949,"unit":"","obs_status":"","decimal":1},{"indicator":{"id":"AG.LND.FRST.ZS","value":"Forest area (% of land area)"},"country":{"id":"1W","value":"World"},"countryiso3code":"WLD","date":"2013","value":31.4370965108556,"unit":"","obs_status":"","decimal":1},{"indicator":{"id":"AG.LND.FRST.ZS","value":"Forest area (% of land area)"},"country":{"id":"1W","value":"World"},"countryiso3code":"WLD","date":"2012","value":31.4712089390986,"unit":"","obs_status":"","decimal":1},{"indicator":{"id":"AG.LND.FRST.ZS","value":"Forest area (% of land area)"},"country":{"id":"1W","value":"World"},"countryiso3code":"WLD","date":"2011","value":31.911541080106,"unit":"","obs_status":"","decimal":1},{"indicator":{"id":"AG.LND.FRST.ZS","value":"Forest area (% of land area)"},"country":{"id":"1W","value":"World"},"countryiso3code":"WLD","date":"2010","value":31.9456325774178,"unit":"","obs_status":"","decimal":1},{"indicator":{"id":"AG.LND.FRST.ZS","value":"Forest area (% of land area)"},"country":{"id":"1W","value":"World"},"countryiso3code":"WLD","date":"2009","value":31.9854288136139,"unit":"","obs_status":"","decimal":1},{"indicator":{"id":"AG.LND.FRST.ZS","value":"Forest area (% of land area)"},"country":{"id":"1W","value":"World"},"countryiso3code":"WLD","date":"2008","value":32.0242370807185,"unit":"","obs_status":"","decimal":1},{"indicator":{"id":"AG.LND.FRST.ZS","value":"Forest area (% of land area)"},"country":{"id":"1W","value":"World"},"countryiso3code":"WLD","date":"2007","value":32.0594407969041,"unit":"","obs_status":"","decimal":1},{"indicator":{"id":"AG.LND.FRST.ZS","value":"Forest area (% of land area)"},"country":{"id":"1W","value":"World"},"countryiso3code":"WLD","date":"2006","value":32.0985781567973,"unit":"","obs_status":"","decimal":1},{"indicator":{"id":"AG.LND.FRST.ZS","value":"Forest area (% of land area)"},"country":{"id":"1W","value":"World"},"countryiso3code":"WLD","date":"2005","value":32.1369399989646,"unit":"","obs_status":"","decimal":1},{"indicator":{"id":"AG.LND.FRST.ZS","value":"Forest area (% of land area)"},"country":{"id":"1W","value":"World"},"countryiso3code":"WLD","date":"2004","value":32.1772151348171,"unit":"","obs_status":"","decimal":1},{"indicator":{"id":"AG.LND.FRST.ZS","value":"Forest area (% of land area)"},"country":{"id":"1W","value":"World"},"countryiso3code":"WLD","date":"2003","value":32.2539212599977,"unit":"","obs_status":"","decimal":1},{"indicator":{"id":"AG.LND.FRST.ZS","value":"Forest area (% of land area)"},"country":{"id":"1W","value":"World"},"countryiso3code":"WLD","date":"2002","value":32.2953595345931,"unit":"","obs_status":"","decimal":1},{"indicator":{"id":"AG.LND.FRST.ZS","value":"Forest area (% of land area)"},"country":{"id":"1W","value":"World"},"countryiso3code":"WLD","date":"2001","value":32.3344314178347,"unit":"","obs_status":"","decimal":1},{"indicator":{"id":"AG.LND.FRST.ZS","value":"Forest area (% of land area)"},"country":{"id":"1W","value":"World"},"countryiso3code":"WLD","date":"2000","value":32.373759569026,"unit":"","obs_status":"","decimal":1},{"indicator":{"id":"AG.LND.FRST.ZS","value":"Forest area (% of land area)"},"country":{"id":"1W","value":"World"},"countryiso3code":"WLD","date":"1999","value":32.4516216956723,"unit":"","obs_status":"","decimal":1},{"indicator":{"id":"AG.LND.FRST.ZS","value":"Forest area (% of land area)"},"country":{"id":"1W","value":"World"},"countryiso3code":"WLD","date":"1998","value":32.5137430222582,"unit":"","obs_status":"","decimal":1},{"indicator":{"id":"AG.LND.FRST.ZS","value":"Forest area (% of land area)"},"country":{"id":"1W","value":"World"},"countryiso3code":"WLD","date":"1997","value":32.5674589530177,"unit":"","obs_status":"","decimal":1},{"indicator":{"id":"AG.LND.FRST.ZS","value":"Forest area (% of land area)"},"country":{"id":"1W","value":"World"},"countryiso3code":"WLD","date":"1996","value":32.645644844447,"unit":"","obs_status":"","decimal":1},{"indicator":{"id":"AG.LND.FRST.ZS","value":"Forest area (% of land area)"},"country":{"id":"1W","value":"World"},"countryiso3code":"WLD","date":"1995","value":32.7059360687426,"unit":"","obs_status":"","decimal":1},{"indicator":{"id":"AG.LND.FRST.ZS","value":"Forest area (% of land area)"},"country":{"id":"1W","value":"World"},"countryiso3code":"WLD","date":"1994","value":32.765567901761,"unit":"","obs_status":"","decimal":1},{"indicator":{"id":"AG.LND.FRST.ZS","value":"Forest area (% of land area)"},"country":{"id":"1W","value":"World"},"countryiso3code":"WLD","date":"1993","value":32.8229368636513,"unit":"","obs_status":"","decimal":1},{"indicator":{"id":"AG.LND.FRST.ZS","value":"Forest area (% of land area)"},"country":{"id":"1W","value":"World"},"countryiso3code":"WLD","date":"1992","value":33.0058502755487,"unit":"","obs_status":"","decimal":1},{"indicator":{"id":"AG.LND.FRST.ZS","value":"Forest area (% of land area)"},"country":{"id":"1W","value":"World"},"countryiso3code":"WLD","date":"1991","value":null,"unit":"","obs_status":"","decimal":1},{"indicator":{"id":"AG.LND.FRST.ZS","value":"Forest area (% of land area)"},"country":{"id":"1W","value":"World"},"countryiso3code":"WLD","date":"1990","value":null,"unit":"","obs_status":"","decimal":1},{"indicator":{"id":"AG.LND.FRST.ZS","value":"Forest area (% of land area)"},"country":{"id":"1W","value":"World"},"countryiso3code":"WLD","date":"1989","value":null,"unit":"","obs_status":"","decimal":1},{"indicator":{"id":"AG.LND.FRST.ZS","value":"Forest area (% of land area)"},"country":{"id":"1W","value":"World"},"countryiso3code":"WLD","date":"1988","value":null,"unit":"","obs_status":"","decimal":1},{"indicator":{"id":"AG.LND.FRST.ZS","value":"Forest area (% of land area)"},"country":{"id":"1W","value":"World"},"countryiso3code":"WLD","date":"1987","value":null,"unit":"","obs_status":"","decimal":1},{"indicator":{"id":"AG.LND.FRST.ZS","value":"Forest area (% of land area)"},"country":{"id":"1W","value":"World"},"countryiso3code":"WLD","date":"1986","value":null,"unit":"","obs_status":"","decimal":1},{"indicator":{"id":"AG.LND.FRST.ZS","value":"Forest area (% of land area)"},"country":{"id":"1W","value":"World"},"countryiso3code":"WLD","date":"1985","value":null,"unit":"","obs_status":"","decimal":1},{"indicator":{"id":"AG.LND.FRST.ZS","value":"Forest area (% of land area)"},"country":{"id":"1W","value":"World"},"countryiso3code":"WLD","date":"1984","value":null,"unit":"","obs_status":"","decimal":1},{"indicator":{"id":"AG.LND.FRST.ZS","value":"Forest area (% of land area)"},"country":{"id":"1W","value":"World"},"countryiso3code":"WLD","date":"1983","value":null,"unit":"","obs_status":"","decimal":1},{"indicator":{"id":"AG.LND.FRST.ZS","value":"Forest area (% of land area)"},"country":{"id":"1W","value":"World"},"countryiso3code":"WLD","date":"1982","value":null,"unit":"","obs_status":"","decimal":1},{"indicator":{"id":"AG.LND.FRST.ZS","value":"Forest area (% of land area)"},"country":{"id":"1W","value":"World"},"countryiso3code":"WLD","date":"1981","value":null,"unit":"","obs_status":"","decimal":1},{"indicator":{"id":"AG.LND.FRST.ZS","value":"Forest area (% of land area)"},"country":{"id":"1W","value":"World"},"countryiso3code":"WLD","date":"1980","value":null,"unit":"","obs_status":"","decimal":1},{"indicator":{"id":"AG.LND.FRST.ZS","value":"Forest area (% of land area)"},"country":{"id":"1W","value":"World"},"countryiso3code":"WLD","date":"1979","value":null,"unit":"","obs_status":"","decimal":1},{"indicator":{"id":"AG.LND.FRST.ZS","value":"Forest area (% of land area)"},"country":{"id":"1W","value":"World"},"countryiso3code":"WLD","date":"1978","value":null,"unit":"","obs_status":"","decimal":1},{"indicator":{"id":"AG.LND.FRST.ZS","value":"Forest area (% of land area)"},"country":{"id":"1W","value":"World"},"countryiso3code":"WLD","date":"1977","value":null,"unit":"","obs_status":"","decimal":1},{"indicator":{"id":"AG.LND.FRST.ZS","value":"Forest area (% of land area)"},"country":{"id":"1W","value":"World"},"countryiso3code":"WLD","date":"1976","value":null,"unit":"","obs_status":"","decimal":1},{"indicator":{"id":"AG.LND.FRST.ZS","value":"Forest area (% of land area)"},"country":{"id":"1W","value":"World"},"countryiso3code":"WLD","date":"1975","value":null,"unit":"","obs_status":"","decimal":1},{"indicator":{"id":"AG.LND.FRST.ZS","value":"Forest area (% of land area)"},"country":{"id":"1W","value":"World"},"countryiso3code":"WLD","date":"1974","value":null,"unit":"","obs_status":"","decimal":1},{"indicator":{"id":"AG.LND.FRST.ZS","value":"Forest area (% of land area)"},"country":{"id":"1W","value":"World"},"countryiso3code":"WLD","date":"1973","value":null,"unit":"","obs_status":"","decimal":1},{"indicator":{"id":"AG.LND.FRST.ZS","value":"Forest area (% of land area)"},"country":{"id":"1W","value":"World"},"countryiso3code":"WLD","date":"1972","value":null,"unit":"","obs_status":"","decimal":1},{"indicator":{"id":"AG.LND.FRST.ZS","value":"Forest area (% of land area)"},"country":{"id":"1W","value":"World"},"countryiso3code":"WLD","date":"1971","value":null,"unit":"","obs_status":"","decimal":1},{"indicator":{"id":"AG.LND.FRST.ZS","value":"Forest area (% of land area)"},"country":{"id":"1W","value":"World"},"countryiso3code":"WLD","date":"1970","value":null,"unit":"","obs_status":"","decimal":1},{"indicator":{"id":"AG.LND.FRST.ZS","value":"Forest area (% of land area)"},"country":{"id":"1W","value":"World"},"countryiso3code":"WLD","date":"1969","value":null,"unit":"","obs_status":"","decimal":1},{"indicator":{"id":"AG.LND.FRST.ZS","value":"Forest area (% of land area)"},"country":{"id":"1W","value":"World"},"countryiso3code":"WLD","date":"1968","value":null,"unit":"","obs_status":"","decimal":1},{"indicator":{"id":"AG.LND.FRST.ZS","value":"Forest area (% of land area)"},"country":{"id":"1W","value":"World"},"countryiso3code":"WLD","date":"1967","value":null,"unit":"","obs_status":"","decimal":1},{"indicator":{"id":"AG.LND.FRST.ZS","value":"Forest area (% of land area)"},"country":{"id":"1W","value":"World"},"countryiso3code":"WLD","date":"1966","value":null,"unit":"","obs_status":"","decimal":1}]]